<?xml version="1.0" encoding="UTF-8" standalone="no"?>
<!-- Created with Inkscape (http://www.inkscape.org/) -->

<svg
   xmlns:dc="http://purl.org/dc/elements/1.1/"
   xmlns:cc="http://creativecommons.org/ns#"
   xmlns:rdf="http://www.w3.org/1999/02/22-rdf-syntax-ns#"
   xmlns:svg="http://www.w3.org/2000/svg"
   xmlns="http://www.w3.org/2000/svg"
   xmlns:sodipodi="http://sodipodi.sourceforge.net/DTD/sodipodi-0.dtd"
   xmlns:inkscape="http://www.inkscape.org/namespaces/inkscape"
   width="40"
   height="40"
   id="svg2"
   version="1.1"
   inkscape:version="0.48.1 r9760"
   sodipodi:docname="actionbar_icon_search.svg">
  <defs
     id="defs4" />
  <sodipodi:namedview
     id="base"
     pagecolor="#22233e"
     bordercolor="#666666"
     borderopacity="1.0"
     inkscape:pageopacity="1"
     inkscape:pageshadow="2"
     inkscape:zoom="20.95"
     inkscape:cx="14.359813"
     inkscape:cy="20"
     inkscape:document-units="px"
     inkscape:current-layer="layer1"
     showgrid="true"
     inkscape:window-width="1920"
     inkscape:window-height="1056"
     inkscape:window-x="0"
     inkscape:window-y="24"
     inkscape:window-maximized="1">
    <inkscape:grid
       type="xygrid"
       id="grid3004"
       empspacing="5"
       visible="true"
       enabled="true"
       snapvisiblegridlinesonly="true" />
  </sodipodi:namedview>
  <metadata
     id="metadata7">
    <rdf:RDF>
      <cc:Work
         rdf:about="">
        <dc:format>image/svg+xml</dc:format>
        <dc:type
           rdf:resource="http://purl.org/dc/dcmitype/StillImage" />
        <dc:title />
      </cc:Work>
    </rdf:RDF>
  </metadata>
  <g
     inkscape:label="Layer 1"
     inkscape:groupmode="layer"
     id="layer1"
     transform="translate(0,-1012.3622)">
    <path
       id="path651"
       d="m 39.383768,1046.1102 -9.003705,-9.002 c -0.677345,-0.6773 -1.704917,-0.7884 -2.508487,-0.3493 l -1.920031,-1.92 c 1.635583,-2.3227 2.606265,-5.1477 2.606265,-8.1984 0,-7.873 -6.406328,-14.2784 -14.279348,-14.2784 -7.8730201,0 -14.2784595675538,6.4045 -14.2784595675538,14.2784 0,7.8739 6.4045506675538,14.2794 14.2784595675538,14.2794 3.038273,0 5.850764,-0.96 8.167247,-2.5832 l 1.932476,1.9343 c -0.415117,0.7964 -0.298671,1.8036 0.368007,2.472 l 9.003705,9.002 c 0.821346,0.823 2.168036,0.823 2.989383,0 l 2.646266,-2.6446 c 0.819569,-0.8213 0.819569,-2.1671 -0.0018,-2.9902 z m -25.106195,-10.4775 c -4.9636384,0 -8.9894826,-4.0259 -8.9894826,-8.9913 0,-4.9636 4.0258442,-8.9895 8.9894826,-8.9895 4.965416,0 8.991261,4.0259 8.991261,8.9895 0,4.9654 -4.025845,8.9913 -8.991261,8.9913 z"
       inkscape:connector-curvature="0"
       style="fill:#ffffff;fill-opacity:1" />
  </g>
</svg>
